{
    "version": "0.0.2",
    "MgDBName": "bolowdb",
    "MgDBURI": "mongodb://localhost:27017/bolowdb",
    "JWTKey": "your-jwt-key",
    "Port": ":8082",
    "SSEPort": ":8083",
    "MapKey": "your-google-maps-key",
    "MailGun": {
        "APIKey": "",
        "DomainKey": "",
        "Email": ""
    },
    "Admin": {
        "email": "",
        "password": "",
        "first_name": "",
        "last_name": ""
    },
    "static_directory": "",
    "static_domain": ""
}